{
  "main.css": "static/css/main.e4110f0a.css",
  "main.css.map": "static/css/main.e4110f0a.css.map",
  "main.js": "static/js/main.f868d945.js",
  "main.js.map": "static/js/main.f868d945.js.map",
  "static/media/BentonSansBBVA-Bold.eot": "static/media/BentonSansBBVA-Bold.15798dcb.eot",
  "static/media/BentonSansBBVA-Bold.svg": "static/media/BentonSansBBVA-Bold.42e7524d.svg",
  "static/media/BentonSansBBVA-Bold.woff": "static/media/BentonSansBBVA-Bold.d8009bb5.woff",
  "static/media/BentonSansBBVA-Bold.woff2": "static/media/BentonSansBBVA-Bold.52d71683.woff2",
  "static/media/BentonSansBBVA-Book.eot": "static/media/BentonSansBBVA-Book.ffa020f7.eot",
  "static/media/BentonSansBBVA-Book.svg": "static/media/BentonSansBBVA-Book.01009e72.svg",
  "static/media/BentonSansBBVA-Book.woff": "static/media/BentonSansBBVA-Book.dad6b619.woff",
  "static/media/BentonSansBBVA-Book.woff2": "static/media/BentonSansBBVA-Book.e65584ac.woff2",
  "static/media/BentonSansBBVA-Light.eot": "static/media/BentonSansBBVA-Light.8a0c1e9a.eot",
  "static/media/BentonSansBBVA-Light.svg": "static/media/BentonSansBBVA-Light.afe2a5e2.svg",
  "static/media/BentonSansBBVA-Light.woff": "static/media/BentonSansBBVA-Light.edd04954.woff",
  "static/media/BentonSansBBVA-Light.woff2": "static/media/BentonSansBBVA-Light.0372e439.woff2",
  "static/media/BentonSansBBVA-Medium.eot": "static/media/BentonSansBBVA-Medium.7263496c.eot",
  "static/media/BentonSansBBVA-Medium.svg": "static/media/BentonSansBBVA-Medium.a4c3b927.svg",
  "static/media/BentonSansBBVA-Medium.woff": "static/media/BentonSansBBVA-Medium.f50002bc.woff",
  "static/media/BentonSansBBVA-Medium.woff2": "static/media/BentonSansBBVA-Medium.9008adfa.woff2",
  "static/media/glyphicons-halflings-regular.eot": "static/media/glyphicons-halflings-regular.f4769f9b.eot",
  "static/media/glyphicons-halflings-regular.svg": "static/media/glyphicons-halflings-regular.89889688.svg",
  "static/media/glyphicons-halflings-regular.ttf": "static/media/glyphicons-halflings-regular.e18bbf61.ttf",
  "static/media/glyphicons-halflings-regular.woff": "static/media/glyphicons-halflings-regular.fa277232.woff",
  "static/media/glyphicons-halflings-regular.woff2": "static/media/glyphicons-halflings-regular.448c34a5.woff2",
  "static/media/go_icon.png": "static/media/go_icon.4d89e967.png",
  "static/media/image_home.png": "static/media/image_home.758c51ea.png",
  "static/media/image_home_360.png": "static/media/image_home_360.d390f0bd.png",
  "static/media/image_home_768_2.png": "static/media/image_home_768_2.134d0339.png",
  "static/media/image_phone.png": "static/media/image_phone.40e9ceba.png",
  "static/media/video.png": "static/media/video.ec3e5e9a.png"
}
